Factory Details:
  Rank                     none (0)
  Long-name                Player Bin 2
  Klass                    Generic/Bin/Player
  Description              Autoplug and play media from an uri
  Author                   Wim Taymans <wim.taymans@gmail.com>

Plugin Details:
  Name                     playback
  Description              various playback elements
  Filename                 C:\msys64\mingw64\lib\gstreamer-1.0\libgstplayback.dll
  Version                  1.20.1
  License                  LGPL
  Source module            gst-plugins-base
  Source release date      2022-03-14
  Binary package           GStreamer Base Plug-ins source release
  Origin URL               https://www.msys2.org

GObject
 +----GInitiallyUnowned
       +----GstObject
             +----GstElement
                   +----GstBin
                         +----GstPipeline
                               +----GstPlayBin

Implemented Interfaces:
  GstChildProxy
  GstStreamVolume
  GstVideoOverlay
  GstNavigation
  GstColorBalance

Pad Templates:
  none

Element has no clocking capabilities.
Element has no URI handling capabilities.

Pads:
  none

Element Properties:
  async-handling      : The bin will handle Asynchronous state changes
                        flags: readable, writable
                        Boolean. Default: false
  audio-filter        : the audio filter(s) to apply, if possible
                        flags: readable, writable
                        Object of type "GstElement"
  audio-sink          : the audio output element to use (NULL = default sink)
                        flags: readable, writable
                        Object of type "GstElement"
  audio-stream-combiner: Current audio stream combiner (NULL = input-selector)
                        flags: readable, writable
                        Object of type "GstElement"
  auto-flush-bus      : Whether to automatically flush the pipeline's bus when going from READY into NULL state
                        flags: readable, writable
                        Boolean. Default: true
  av-offset           : The synchronisation offset between audio and video in nanoseconds
                        flags: readable, writable
                        Integer64. Range: -9223372036854775808 - 9223372036854775807 Default: 0 
  buffer-duration     : Buffer duration when buffering network streams
                        flags: readable, writable
                        Integer64. Range: -1 - 9223372036854775807 Default: -1 
  buffer-size         : Buffer size when buffering network streams
                        flags: readable, writable
                        Integer. Range: -1 - 2147483647 Default: -1 
  connection-speed    : Network connection speed in kbps (0 = unknown)
                        flags: readable, writable
                        Unsigned Integer64. Range: 0 - 18446744073709551 Default: 0 
  current-audio       : Currently playing audio stream (-1 = auto)
                        flags: readable, writable
                        Integer. Range: -1 - 2147483647 Default: -1 
  current-suburi      : The currently playing URI of a subtitle
                        flags: readable
                        String. Default: null
  current-text        : Currently playing text stream (-1 = auto)
                        flags: readable, writable
                        Integer. Range: -1 - 2147483647 Default: -1 
  current-uri         : The currently playing URI
                        flags: readable
                        String. Default: null
  current-video       : Currently playing video stream (-1 = auto)
                        flags: readable, writable
                        Integer. Range: -1 - 2147483647 Default: -1 
  delay               : Expected delay needed for elements to spin up to PLAYING in nanoseconds
                        flags: readable, writable
                        Unsigned Integer64. Range: 0 - 18446744073709551615 Default: 0 
  flags               : Flags to control behaviour
                        flags: readable, writable
                        Flags "GstPlayFlags" Default: 0x00000617, "soft-colorbalance+deinterlace+soft-volume+text+audio+video"
                           (0x00000001): video            - Render the video stream
                           (0x00000002): audio            - Render the audio stream
                           (0x00000004): text             - Render subtitles
                           (0x00000008): vis              - Render visualisation when no video is present
                           (0x00000010): soft-volume      - Use software volume
                           (0x00000020): native-audio     - Only use native audio formats
                           (0x00000040): native-video     - Only use native video formats
                           (0x00000080): download         - Attempt progressive download buffering
                           (0x00000100): buffering        - Buffer demuxed/parsed data
                           (0x00000200): deinterlace      - Deinterlace video if necessary
                           (0x00000400): soft-colorbalance - Use software color balance
                           (0x00000800): force-filters    - Force audio/video filter(s) to be applied
                           (0x00001000): force-sw-decoders - Force only software-based decoders (no effect for playbin3)
  force-aspect-ratio  : When enabled, scaling will respect original aspect ratio
                        flags: readable, writable
                        Boolean. Default: true
  latency             : Latency to configure on the pipeline
                        flags: readable, writable
                        Unsigned Integer64. Range: 0 - 18446744073709551615 Default: 18446744073709551615 
  message-forward     : Forwards all children messages
                        flags: readable, writable
                        Boolean. Default: false
  mute                : Mute the audio channel without changing the volume
                        flags: readable, writable
                        Boolean. Default: false
  n-audio             : Total number of audio streams
                        flags: readable
                        Integer. Range: 0 - 2147483647 Default: 0 
  n-text              : Total number of text streams
                        flags: readable
                        Integer. Range: 0 - 2147483647 Default: 0 
  n-video             : Total number of video streams
                        flags: readable
                        Integer. Range: 0 - 2147483647 Default: 0 
  name                : The name of the object
                        flags: readable, writable, 0x2000
                        String. Default: "playbin0"
  parent              : The parent of the object
                        flags: readable, writable, 0x2000
                        Object of type "GstObject"
  ring-buffer-max-size: Max. amount of data in the ring buffer (bytes, 0 = ring buffer disabled)
                        flags: readable, writable
                        Unsigned Integer64. Range: 0 - 4294967295 Default: 0 
  sample              : The last sample (NULL = no video available)
                        flags: readable
                        Boxed pointer of type "GstSample"
  source              : Source element
                        flags: readable
                        Object of type "GstElement"
  subtitle-encoding   : Encoding to assume if input subtitles are not in UTF-8 encoding. If not set, the GST_SUBTITLE_ENCODING environment variable will be checked for an encoding to use. If that is not set either, ISO-8859-15 will be assumed.
                        flags: readable, writable
                        String. Default: null
  subtitle-font-desc  : Pango font description of font to be used for subtitle rendering
                        flags: writable
                        String. Default: null Write only
  suburi              : Optional URI of a subtitle
                        flags: readable, writable
                        String. Default: null
  text-offset         : The synchronisation offset between text and video in nanoseconds
                        flags: readable, writable
                        Integer64. Range: -9223372036854775808 - 9223372036854775807 Default: 0 
  text-sink           : the text output element to use (NULL = default subtitleoverlay)
                        flags: readable, writable
                        Object of type "GstElement"
  text-stream-combiner: Current text stream combiner (NULL = input-selector)
                        flags: readable, writable
                        Object of type "GstElement"
  uri                 : URI of the media to play
                        flags: readable, writable
                        String. Default: null
  video-filter        : the video filter(s) to apply, if possible
                        flags: readable, writable
                        Object of type "GstElement"
  video-multiview-flags: Override details of the multiview frame layout
                        flags: readable, writable
                        Flags "GstVideoMultiviewFlags" Default: 0x00000000, "none"
                           (0x00000000): none             - GST_VIDEO_MULTIVIEW_FLAGS_NONE
                           (0x00000001): right-view-first - GST_VIDEO_MULTIVIEW_FLAGS_RIGHT_VIEW_FIRST
                           (0x00000002): left-flipped     - GST_VIDEO_MULTIVIEW_FLAGS_LEFT_FLIPPED
                           (0x00000004): left-flopped     - GST_VIDEO_MULTIVIEW_FLAGS_LEFT_FLOPPED
                           (0x00000008): right-flipped    - GST_VIDEO_MULTIVIEW_FLAGS_RIGHT_FLIPPED
                           (0x00000010): right-flopped    - GST_VIDEO_MULTIVIEW_FLAGS_RIGHT_FLOPPED
                           (0x00004000): half-aspect      - GST_VIDEO_MULTIVIEW_FLAGS_HALF_ASPECT
                           (0x00008000): mixed-mono       - GST_VIDEO_MULTIVIEW_FLAGS_MIXED_MONO
  video-multiview-mode: Re-interpret a video stream as one of several frame-packed stereoscopic modes.
                        flags: readable, writable
                        Enum "GstVideoMultiviewFramePacking" Default: -1, "none"
                           (-1): none             - GST_VIDEO_MULTIVIEW_FRAME_PACKING_NONE
                           (0): mono             - GST_VIDEO_MULTIVIEW_FRAME_PACKING_MONO
                           (1): left             - GST_VIDEO_MULTIVIEW_FRAME_PACKING_LEFT
                           (2): right            - GST_VIDEO_MULTIVIEW_FRAME_PACKING_RIGHT
                           (3): side-by-side     - GST_VIDEO_MULTIVIEW_FRAME_PACKING_SIDE_BY_SIDE
                           (4): side-by-side-quincunx - GST_VIDEO_MULTIVIEW_FRAME_PACKING_SIDE_BY_SIDE_QUINCUNX
                           (5): column-interleaved - GST_VIDEO_MULTIVIEW_FRAME_PACKING_COLUMN_INTERLEAVED
                           (6): row-interleaved  - GST_VIDEO_MULTIVIEW_FRAME_PACKING_ROW_INTERLEAVED
                           (7): top-bottom       - GST_VIDEO_MULTIVIEW_FRAME_PACKING_TOP_BOTTOM
                           (8): checkerboard     - GST_VIDEO_MULTIVIEW_FRAME_PACKING_CHECKERBOARD
  video-sink          : the video output element to use (NULL = default sink)
                        flags: readable, writable
                        Object of type "GstElement"
  video-stream-combiner: Current video stream combiner (NULL = input-selector)
                        flags: readable, writable
                        Object of type "GstElement"
  vis-plugin          : the visualization element to use (NULL = default)
                        flags: readable, writable
                        Object of type "GstElement"
  volume              : The audio volume, 1.0=100%
                        flags: readable, writable
                        Double. Range:               0 -              10 Default:               1 

Element Signals:
  "about-to-finish" :  void user_function (GstElement* object,
                                           gpointer user_data);
  "video-changed" :  void user_function (GstElement* object,
                                         gpointer user_data);
  "audio-changed" :  void user_function (GstElement* object,
                                         gpointer user_data);
  "text-changed" :  void user_function (GstElement* object,
                                        gpointer user_data);
  "video-tags-changed" :  void user_function (GstElement* object,
                                              gint arg0,
                                              gpointer user_data);
  "audio-tags-changed" :  void user_function (GstElement* object,
                                              gint arg0,
                                              gpointer user_data);
  "text-tags-changed" :  void user_function (GstElement* object,
                                             gint arg0,
                                             gpointer user_data);
  "source-setup" :  void user_function (GstElement* object,
                                        GstElement* arg0,
                                        gpointer user_data);
  "element-setup" :  void user_function (GstElement* object,
                                         GstElement* arg0,
                                         gpointer user_data);

Element Actions:
  "get-video-tags" :  GstTagList* user_function (GstElement* object,
                                                  gint arg0);
  "get-audio-tags" :  GstTagList* user_function (GstElement* object,
                                                  gint arg0);
  "get-text-tags" :  GstTagList* user_function (GstElement* object,
                                                 gint arg0);
  "convert-sample" :  GstSample* user_function (GstElement* object,
                                                 GstCaps* arg0);
  "get-video-pad" :  GstPad* user_function (GstElement* object,
                                             gint arg0);
  "get-audio-pad" :  GstPad* user_function (GstElement* object,
                                             gint arg0);
  "get-text-pad" :  GstPad* user_function (GstElement* object,
                                            gint arg0);

Children:
  playsink
